<?xml version="1.0" encoding="utf-8"?>
<!-- Generator: Adobe Illustrator 15.0.0, SVG Export Plug-In . SVG Version: 6.00 Build 0)  -->
<!DOCTYPE svg PUBLIC "-//W3C//DTD SVG 1.1//EN" "http://www.w3.org/Graphics/SVG/1.1/DTD/svg11.dtd">
<svg version="1.1" id="Layer_1" xmlns="http://www.w3.org/2000/svg" xmlns:xlink="http://www.w3.org/1999/xlink" x="0px" y="0px"
	 width="2000px" height="780px" viewBox="0 0 2000 780" style="enable-background:new 0 0 2000 780;" xml:space="preserve">
<polyline style="fill:none;stroke:#000000;stroke-width:2;stroke-miterlimit:2;" points="1255,300 1485,300 1485,294 1495,300 
	1485,306 1485,300 "/>
<polyline style="fill:none;stroke:#000000;stroke-width:2;stroke-miterlimit:2;" points="1005,300 1235,300 1235,294 1245,300 
	1235,306 1235,300 "/>
<polyline style="fill:none;stroke:#000000;stroke-width:2;stroke-miterlimit:2;" points="755,300 985,300 985,294 995,300 985,306 
	985,300 "/>
<line style="fill:none;stroke:#000000;stroke-width:2;stroke-linejoin:round;stroke-miterlimit:2;" x1="625" y1="300" x2="625" y2="510"/>
<line style="fill:none;stroke:#000000;stroke-width:2;stroke-linejoin:round;stroke-miterlimit:2;" x1="875" y1="300" x2="875" y2="510"/>
<line style="fill:none;stroke:#000000;stroke-width:2;stroke-linejoin:round;stroke-miterlimit:2;" x1="1125" y1="300" x2="1125" y2="680"/>
<line style="fill:none;stroke:#000000;stroke-width:2;stroke-linejoin:round;stroke-miterlimit:2;" x1="1375" y1="300" x2="1375" y2="680"/>
<line style="fill:none;stroke:#000000;stroke-width:2;stroke-linejoin:round;stroke-miterlimit:2;" x1="1625" y1="300" x2="1625" y2="520"/>
<path style="fill:none;stroke:#000000;stroke-width:2;stroke-linejoin:round;stroke-miterlimit:2;" d="M1735,300c0,2.8,2.2,5,5,5
	s5-2.2,5-5s-2.2-5-5-5S1735,297.2,1735,300h-230"/>
<path style="fill:none;stroke:#000000;stroke-width:2;stroke-linejoin:round;stroke-miterlimit:2;" d="M15,460c0-2.8-2.2-5-5-5
	s-5,2.2-5,5s2.2,5,5,5S15,462.8,15,460h220v-6l10,6l-10,6v-6"/>
<path style="fill:none;stroke:#000000;stroke-width:2;stroke-linejoin:round;stroke-miterlimit:2;" d="M735,300v6l10-6l-10-6V300
	H510c-5.5,0-10,4.5-10,10v60"/>
<path style="fill:none;stroke:#000000;stroke-width:2;stroke-linejoin:round;stroke-miterlimit:2;" d="M500,385h6l-6-10l-6,10H500
	v34v31c0,5.5-4.5,10-10,10c-1.1,0-235,0-235,0"/>
<line style="fill:none;stroke:#CCCCCC;stroke-width:2;stroke-linejoin:round;stroke-miterlimit:2;stroke-dasharray:2,2;" x1="15" y1="620" x2="1115" y2="620"/>
<line style="fill:none;stroke:#CCCCCC;stroke-width:2;stroke-linejoin:round;stroke-miterlimit:2;stroke-dasharray:2,2;" x1="1135" y1="620" x2="1365" y2="620"/>
<line style="fill:none;stroke:#CCCCCC;stroke-width:2;stroke-linejoin:round;stroke-miterlimit:2;stroke-dasharray:2,2;" x1="1385" y1="620" x2="1735" y2="620"/>
<line style="fill:none;stroke:#CCCCCC;stroke-width:2;stroke-linejoin:round;stroke-miterlimit:2;stroke-dasharray:2,2;" x1="505" y1="460" x2="615" y2="460"/>
<line style="fill:none;stroke:#CCCCCC;stroke-width:2;stroke-linejoin:round;stroke-miterlimit:2;stroke-dasharray:2,2;" x1="635" y1="460" x2="865" y2="460"/>
<line style="fill:none;stroke:#CCCCCC;stroke-width:2;stroke-linejoin:round;stroke-miterlimit:2;stroke-dasharray:2,2;" x1="885" y1="460" x2="1115" y2="460"/>
<line style="fill:none;stroke:#CCCCCC;stroke-width:2;stroke-linejoin:round;stroke-miterlimit:2;stroke-dasharray:2,2;" x1="1135" y1="460" x2="1365" y2="460"/>
<line style="fill:none;stroke:#CCCCCC;stroke-width:2;stroke-linejoin:round;stroke-miterlimit:2;stroke-dasharray:2,2;" x1="1385" y1="460" x2="1615" y2="460"/>
<line style="fill:none;stroke:#CCCCCC;stroke-width:2;stroke-linejoin:round;stroke-miterlimit:2;stroke-dasharray:2,2;" x1="1635" y1="460" x2="1735" y2="460"/>
</svg>
