id,added,deleted
IND980904379,2013-12-12,2014-03-10
NHN000105928,2013-12-12,2014-03-10
NC0001606250,2013-12-12,2014-03-10
INN000508642,2013-12-12,2014-03-10
NC0002374445,2013-12-12,2014-03-10
NMN000607033,2013-12-12,2014-03-10
INN000510399,2013-12-12,2014-03-10
WAN001002857,2013-12-12,2014-03-10
OK0001010917,2013-12-12,2014-03-10
UTD981548985,2013-05-24,2014-03-10
TND987768587,2013-05-24,2014-03-10
MAD001031574,2013-05-24,2014-03-10
KSN000705026,2013-05-24,2014-03-10
GAD003302676,2013-05-24,2014-03-10
NJD043584101,2013-05-24,2014-03-10
INN000508678,2013-05-24,2014-03-10
NJSFN0204232,2013-05-24,2014-03-10
MAD001197755,2013-05-24,2014-03-10
ALD004022448,2012-09-18,2014-03-10
ILN000510407,2012-09-18,2014-03-10
ARD990660649,2012-09-18,2014-03-10
TXN000606965,2012-09-18,2014-03-10
LAN000605517,2012-09-18,2014-03-10
FLD000623041,2012-09-18,2014-03-10
NCD024900987,2012-09-18,2014-03-10
MEN000103584,2012-09-18,2014-03-10
NJD002148799,2012-09-18,2014-03-10
OHD987051083,2012-09-18,2014-03-10
TXN000607093,2012-09-18,2014-03-10
OHN000508132,2012-09-18,2014-03-10
WAN001002907,2012-05-10,2014-03-10
CAD008339467,2012-05-10,2014-03-10
CAN000905902,2012-05-10,2014-03-10
MSD008154486,2012-03-15,2014-03-10
MON000706143,2012-03-15,2014-03-10
FLD982130098,2012-03-15,2014-03-10
PRN000206452,2012-03-15,2014-03-10
NCD003149556,2012-03-15,2014-03-10
NYN000206456,2012-03-15,2014-03-10
PAD044545895,2012-03-15,2014-03-10
MDD981038334,2012-03-15,2014-03-10
MSD000828558,2012-03-15,2014-03-10
TNN000410203,2011-09-16,2014-03-10
GAN000410033,2011-09-16,2014-03-10
CAN000906063,2011-09-16,2014-03-10
NMD002899094,2011-09-16,2014-03-10
TXD086278058,2011-09-16,2014-03-10
NJN000206317,2011-09-16,2014-03-10
IND077005916,2011-09-16,2014-03-10
NCN000407480,2011-09-16,2014-03-10
MSD990866329,2011-09-16,2014-03-10
NY0001095363,2011-09-16,2014-03-10
CA0001900463,2011-09-16,2014-03-10
ORN001002476,2011-09-16,2014-03-10
MSD000272385,2011-09-16,2014-03-10
ILD053980454,2011-09-16,2014-03-10
SCD003358744,2011-09-16,2014-03-10
MTD093291599,2011-03-10,2014-03-10
PRN000206319,2011-03-10,2014-03-10
NYD000512335,2011-03-10,2014-03-10
MDD985366756,2011-03-10,2014-03-10
PRN000206359,2011-03-10,2014-03-10
NJN000206345,2011-03-10,2014-03-10
OHSFN0507973,2011-03-10,2014-03-10
MON000705842,2011-03-10,2014-03-10
TXN000606992,2011-03-10,2014-03-10
NCD024766719,2011-03-10,2014-03-10
NYN000206296,2010-09-29,2014-03-10
FLR000091322,2010-09-29,2014-03-10
NYN000206282,2010-09-29,2014-03-10
FLD032728032,2010-09-29,2014-03-10
TND098071061,2010-09-29,2014-03-10
MIN000510063,2010-09-29,2014-03-10
MON000705803,2010-09-29,2014-03-10
OR0000515759,2010-03-04,2014-03-10
ILD048843809,2010-03-04,2014-03-10
NYN000206222,2010-03-04,2014-03-10
MIN000510389,2010-03-04,2014-03-10
FLN000410232,2010-03-04,2014-03-10
FLD039049101,2010-03-04,2014-03-10
NCD980557805,2010-03-04,2014-03-10
ILD000716852,2010-03-04,2014-03-10
AK0001897602,2010-03-04,2014-03-10
TXD007357932,2010-03-04,2014-03-10
VAN000306115,2009-11-04,2014-03-10
NJN000206276,2009-11-04,2014-03-10
UTN000802704,2009-11-04,2014-03-10
WIN000510210,2009-09-23,2014-03-10
NJD057143984,2009-09-23,2014-03-10
MT0012694970,2009-09-23,2014-03-10
NCN000410161,2009-09-23,2014-03-10
INN000510229,2009-09-23,2014-03-10
OHN000509950,2009-09-23,2014-03-10
NCN000409895,2009-09-23,2014-03-10
PRD090290685,2009-09-23,2014-03-10
CAN000905945,2009-09-23,2014-03-10
PAD980693204,2009-09-23,2014-03-10
MON000705443,2009-09-23,2014-03-10
FLSFN0406909,2009-04-09,2014-03-10
SCN000407714,2009-04-09,2014-03-10
OHN000510164,2009-04-09,2014-03-10
PAD981034887,2009-04-09,2014-03-10
MDD985397249,2009-04-09,2014-03-10
OHN000509238,2009-04-09,2014-03-10
TXN000606760,2009-04-09,2014-03-10
FLD984227249,2009-04-09,2014-03-10
IND047030226,2009-04-09,2014-03-10
NCN000407447,2008-09-03,2014-03-10
OHSFN0507962,2008-09-03,2014-03-10
FLD083111005,2008-09-03,2014-03-10
AZ0000309013,2008-09-03,2014-03-10
CON000802630,2008-09-03,2014-03-10
TXD980513808,2008-09-03,2014-03-10
PAD002323848,2008-03-19,2014-03-10
TX0000605363,2008-03-19,2014-03-10
VAD980829030,2008-03-19,2014-03-10
IND982073785,2008-03-19,2014-03-10
TXN000606668,2008-03-19,2014-03-10
KSD065735912,2008-03-19,2014-03-10
PRN000205957,2008-03-19,2014-03-10
TXN000606611,2008-03-19,2014-03-10
NJD980417976,2008-03-19,2014-03-10
MON000705027,2008-03-19,2014-03-10
MON000705023,2008-03-19,2014-03-10
MON000705032,2008-03-19,2014-03-10
NMD001829506,2007-09-19,2014-03-10
ILD980606941,2007-09-19,2014-03-10
UTN000802654,2007-09-19,2014-03-10
ORN001002616,2007-09-19,2014-03-10
CAD009688052,2007-09-19,2014-03-10
MNN000509136,2007-09-19,2014-03-10
NJD002175057,2007-09-19,2014-03-10
TXN000606565,2007-03-07,2014-03-10
TXN000606614,2007-03-07,2014-03-10
INN000509938,2007-03-07,2014-03-10
WAN001002655,2007-03-07,2014-03-10
MSD086556388,2007-03-07,2014-03-10
ILN000508170,2006-09-27,2014-03-10
NJD011770013,2006-09-27,2014-03-10
PRN000205831,2006-09-27,2014-03-10
PRD987367349,2006-09-27,2014-03-10
GAD033582461,2006-04-19,2014-03-10
CA1141190578,2006-04-19,2014-03-10
MAD001403104,2006-04-19,2014-03-10
NEN000704456,2006-04-19,2014-03-10
WAD980639215,2006-04-19,2014-03-10
NEN000704738,2006-04-19,2014-03-10
NCD044447589,2005-09-14,2014-03-10
NHN000103313,2005-09-14,2014-03-10
NEN000704351,2005-09-14,2014-03-10
PAD001222025,2005-09-14,2014-03-10
GAN000407449,2005-09-14,2014-03-10
TXN000605649,2005-09-14,2014-03-10
CO0002378230,2005-09-14,2014-03-10
SCD987577913,2005-04-27,2014-03-10
VTD098352545,2005-04-27,2014-03-10
OH0000563122,2005-04-27,2014-03-10
NJN000204492,2005-04-27,2014-03-10
ILN000508134,2005-04-27,2014-03-10
NYD066813064,2005-04-27,2014-03-10
PAN000305679,2005-04-27,2014-03-10
PAD987295276,2005-04-27,2014-03-10
NCD062555792,2005-04-27,2014-03-10
TNN000407378,2005-04-27,2014-03-10
PRN000204694,2005-02-11,2014-03-10
WVSFN0305428,2004-09-23,2014-03-10
NJSFN0204241,2004-09-23,2014-03-10
MO0000958611,2004-07-22,2014-03-10
PRN000204538,2004-07-22,2014-03-10
NYD067532580,2004-07-22,2014-03-10
NM0007271768,2004-07-22,2014-03-10
INN000508142,2004-07-22,2014-03-10
NYN000204407,2004-07-22,2014-03-10
MSD065490930,2004-07-22,2014-03-10
VTD988366720,2004-07-22,2014-03-10
PAD981033459,2004-07-22,2014-03-10
CA0001576081,2003-09-29,2014-03-10
COD981551427,2003-09-29,2014-03-10
TXD008091951,2003-09-29,2014-03-10
ORD071803985,2003-09-29,2014-03-10
TXN000605460,2003-09-29,2014-03-10
OHD981537582,2003-09-29,2014-03-10
MOD098633415,2003-09-29,2014-03-10
IL0000064782,2003-09-29,2014-03-10
MOD981507585,2003-09-29,2014-03-10
NCD982096653,2003-09-29,2014-03-10
NJD980505192,2003-09-29,2014-03-10
NHD980520217,2003-09-29,2014-03-10
UTD988075719,2003-04-30,2014-03-10
TXD055144539,2003-04-30,2014-03-10
NESFN0703481,2003-04-30,2014-03-10
PRD987367299,2003-04-30,2014-03-10
FLD098924038,2003-04-30,2014-03-10
NCD003202603,2003-04-30,2014-03-10
NJSFN0204260,2003-04-30,2014-03-10
MT0009083840,2002-10-24,2014-03-10
WISFN0507952,2002-09-05,2014-03-10
NJD981558430,2002-09-05,2014-03-10
TX0000605264,2002-09-05,2014-03-10
MED980524128,2002-09-05,2014-03-10
NYN000204289,2002-09-05,2014-03-10
NYD986965333,2002-09-05,2014-03-10
MD4690307844,2002-09-05,2014-03-10
CAD029544731,2002-09-05,2014-03-10
NJD092226000,2002-09-05,2014-03-10
NYSFN0204190,2002-09-05,2014-03-10
UT0002240158,2002-09-05,2014-03-10
PASFN0305549,2002-09-05,2014-03-10
MAD001060805,2002-09-05,2014-03-10
NM0000605386,2002-09-05,2014-03-10
MOD981717036,2002-09-05,2014-03-10
TX0000605329,2002-09-05,2014-03-10
NJD000606442,2002-09-05,2014-03-10
IA0001610963,2002-09-05,2014-03-10
NCD986187094,2002-09-05,2014-03-10
MSD004006995,2001-09-13,2014-03-10
NCSFN0406989,2001-09-13,2014-03-10
MT6122307485,2001-09-13,2014-03-10
UT0001119296,2001-09-13,2014-03-10
MT0001096353,2001-09-13,2014-03-10
CAD020748125,2001-09-13,2014-03-10
VTD988366571,2001-09-13,2014-03-10
WA0002329803,2001-09-13,2014-03-10
NYD980753420,2001-09-13,2014-03-10
PAD982363970,2001-09-13,2014-03-10
PAD980706824,2001-09-13,2014-03-10
NY0002455756,2001-06-14,2014-03-10
CAD055753370,2001-06-14,2014-03-10
VTD988366621,2001-06-14,2014-03-10
NM0002271286,2001-06-14,2014-03-10
PASFN0305521,2001-06-14,2014-03-10
TXD980864789,2001-06-14,2014-03-10
MAD062166335,2001-06-14,2014-03-10
NYSFN0204269,2001-06-14,2014-03-10
MAD980520696,2001-06-14,2014-03-10
ORD009042532,2001-06-14,2014-03-10
FLD012978862,2000-12-01,2014-03-10
CAD098229214,2000-12-01,2014-03-10
SDD987673985,2000-12-01,2014-03-10
ILD042671248,2000-12-01,2014-03-10
MT0007623052,2000-12-01,2014-03-10
VA3170024605,2000-12-01,2014-03-10
ORSFN1002155,2000-12-01,2014-03-10
MOD981720246,2000-12-01,2014-03-10
WVD054827944,2000-07-27,2014-03-10
MSD046497012,2000-07-27,2014-03-10
WASFN1002174,2000-07-27,2014-03-10
MOD985798339,2000-07-27,2014-03-10
CT0002265551,2000-07-27,2014-03-10
FL0001209840,2000-07-27,2014-03-10
VA5170000181,2000-07-27,2014-03-10
TX0001414341,2000-07-27,2014-03-10
OK0002024099,2000-07-27,2013-09-19
TXD068104561,2000-07-27,2012-02-06
UTD093120921,2000-07-27,2011-10-11
LA0000187518,2000-07-27,2005-09-19
UT0001277359,2000-05-11,2014-03-10
FLD042110841,2000-05-11,2014-03-10
CAD980673685,2000-05-11,2014-03-10
WAD980978753,2000-05-11,2014-03-10
NYSFN0204234,2000-05-11,2014-03-10
ARD042755231,2000-05-11,2014-03-10
FLD094590916,2000-05-11,2009-08-04
RID981203755,2000-02-04,2014-03-10
NYD001344456,2000-02-04,2014-03-10
UT0002391472,2000-02-04,2014-03-10
NYD002041531,2000-02-04,2014-03-10
SCD003360476,2000-02-04,2014-03-10
LAD008473142,2000-02-04,2014-03-10
PAD981938939,2000-02-04,2014-03-10
PRD987376662,2000-02-04,2014-03-10
FLD091471904,2000-02-04,2014-03-10
NYD980592547,2000-02-04,2010-09-20
MTD982572562,1999-10-22,2014-03-10
NMD986668911,1999-10-22,2014-03-10
TXD007330053,1999-10-22,2014-03-10
NJ0001360882,1999-10-22,2014-03-10
NJD014743678,1999-10-22,2014-03-10
NJ0570024018,1999-10-22,2014-03-10
TXSFN0605177,1999-10-22,2014-03-10
MTSFN7578012,1999-10-22,2014-03-10
WVD988798401,1999-10-22,2014-03-10
MO0000958835,1999-09-17,2014-03-10
CA2170023236,1999-07-22,2014-03-10
MED980915474,1999-07-22,2014-03-10
NJD980772727,1999-07-22,2014-03-10
VAD123933426,1999-07-22,2014-03-10
WVD024185373,1999-07-22,2014-03-10
TXD050299577,1999-07-22,2014-03-10
OKD082471988,1999-07-22,2014-03-10
VAD077923449,1999-07-22,2014-03-10
NJD014623854,1999-07-22,2014-03-10
ARD049658628,1999-07-22,2014-03-10
VA1170024813,1999-07-22,2014-03-10
NCD986187128,1999-07-22,2014-03-10
NJ0001120799,1999-07-22,2014-03-10
CO0002259588,1999-07-22,2014-03-10
PRD980512669,1999-07-22,2014-03-10
ALD981868466,1999-05-10,2014-03-10
MD0570024000,1999-05-10,2014-03-10
MOD046750253,1999-05-10,2014-03-10
MD9570024803,1999-05-10,2014-03-10
NYD125499673,1999-05-10,2014-03-10
ILD062340641,1999-05-10,2014-03-10
VA5170022482,1999-05-10,2014-03-10
NYD047650197,1999-05-10,2014-03-10
LAD985185107,1999-05-10,2010-07-13
LAD008187940,1999-05-10,2009-09-18
TX0001399435,1999-01-19,2014-03-10
NCD986175644,1999-01-19,2014-03-10
NJ0001900281,1999-01-19,2014-03-10
MND985701309,1999-01-19,2014-03-10
CAD983618893,1999-01-19,2014-03-10
NYD986950251,1999-01-19,2014-03-10
TXD008083404,1999-01-19,2014-03-10
NJ0890090012,1999-01-19,2014-03-10
NYD986950012,1999-01-19,2014-03-10
NMD986670156,1999-01-19,2014-03-10
CAD042245001,1999-01-19,2014-03-10
CAD980737092,1999-01-19,2014-03-10
VTD069910354,1999-01-19,2014-03-10
NY0002318889,1999-01-19,2014-03-10
OKD987096195,1999-01-19,2014-03-10
NYD981560915,1999-01-19,2012-02-13
LAD052510344,1999-01-19,2005-08-08
TXD066379645,1998-09-29,2014-03-10
TXD062113329,1998-09-18,2014-03-10
GAD008212409,1998-07-28,2014-03-10
NJD981557879,1998-07-28,2014-03-10
MD9210020567,1998-07-28,2014-03-10
TXD008096240,1998-07-28,2014-03-10
NJD079303020,1998-07-28,2014-03-10
PAD001933175,1998-07-28,2014-03-10
FLD045459526,1998-07-28,2014-03-10
DC9170024310,1998-07-28,2014-03-10
TXD099801102,1998-07-28,2012-02-06
IND005480462,1998-03-06,2014-03-10
FLD984184127,1998-03-06,2014-03-10
NY0000110247,1998-03-06,2014-03-10
NYD980530265,1998-03-06,2014-03-10
NJD981084767,1998-03-06,2014-03-10
NJD986643153,1998-03-06,2014-03-10
MDD003061447,1997-09-25,2014-03-10
WAD008957243,1997-09-25,2014-03-10
MDD982364341,1997-09-25,2014-03-10
TX0001407444,1997-09-25,2014-03-10
NJ0001327733,1997-09-25,2007-09-18
GAD981024466,1997-04-01,2014-03-10
VA6170061463,1997-04-01,2014-03-10
WA0000026534,1997-04-01,2014-03-10
TND096070396,1997-04-01,2014-03-10
FL1570024124,1997-04-01,2014-03-10
NHD018958140,1996-12-23,2014-03-10
LAD981522998,1996-12-23,2014-03-10
FLD088787585,1996-12-23,2014-03-10
WVD000800441,1996-12-23,2014-03-10
SCD003357589,1996-12-23,2014-03-10
FLD004092532,1996-12-23,2014-03-10
PRD987366101,1996-12-23,2001-10-22
MI0001119106,1996-06-17,2014-03-10
PAD089667695,1996-06-17,2014-03-10
NED981713829,1996-06-17,2014-03-10
MED981073711,1996-06-17,2014-03-10
NJD986570992,1996-06-17,2014-03-10
ILD006282479,1996-06-17,2014-03-10
GAD099303182,1996-06-17,2014-03-10
NY0001233634,1996-06-17,2014-03-10
WID006176945,1996-06-17,2014-03-10
NJD986620995,1996-06-17,2014-03-10
KSD984985929,1996-06-17,2014-03-10
VID980651095,1996-06-17,2009-10-16
MI0001271535,1996-06-17,1998-05-21
KSD046746731,1995-09-29,2014-03-10
NJD980663678,1995-09-29,2014-03-10
MD7170024684,1995-09-29,2014-03-10
TXD079348397,1995-09-29,2014-03-10
TND071516959,1995-09-29,2014-03-10
VID982272569,1995-09-29,2014-03-10
MED985466168,1995-09-29,2014-03-10
PAD987277837,1995-09-29,2014-03-10
LAD008149015,1995-05-26,1998-06-16
WAD009624453,1995-04-25,2014-03-10
OR7122307658,1995-04-25,2014-03-10
CTD001186618,1995-04-25,2014-03-10
WAD980639256,1995-04-25,2002-09-18
LAD981056997,1994-12-16,2014-03-10
SCD058754789,1994-12-16,2014-03-10
NMD980622864,1994-12-16,2014-03-10
MND982425209,1994-12-16,2014-03-10
NC1170027261,1994-12-16,2014-03-10
CA7170024528,1994-12-16,2014-03-10
HID980637631,1994-12-16,2014-03-10
FLD008168346,1994-12-16,2014-03-10
VA6210020321,1994-12-16,2014-03-10
NCD079044426,1994-12-16,2014-03-10
SCD980310239,1994-12-16,2014-03-10
IAD980969190,1994-12-16,2014-03-10
NED986369247,1994-12-16,2014-03-10
NYD986913580,1994-12-16,2014-03-10
SC6170022762,1994-12-16,2014-03-10
ORD009412677,1994-12-16,2014-03-10
NYD980507495,1994-12-16,2008-09-22
TND987767795,1994-12-16,2002-01-07
AK4170024323,1994-05-31,2014-03-10
WV0170023691,1994-05-31,2014-03-10
MD0120508940,1994-05-31,2014-03-10
MAD982191363,1994-05-31,2014-03-10
KSD031349624,1994-05-31,2014-03-10
FLD004064242,1994-05-31,2014-03-10
AK6214522157,1994-05-31,2014-03-10
CAD071530380,1994-05-31,2014-03-10
NYD981566417,1994-05-31,2014-03-10
MA8570024424,1994-05-31,2014-03-10
WA3170090044,1994-05-31,2014-03-10
CA2890190000,1994-05-31,2014-03-10
VA2800005033,1994-05-31,2014-03-10
VA1170024722,1994-05-31,2014-03-10
ORD009020603,1994-05-31,2014-03-10
MA1210020631,1994-05-31,2014-03-10
KYD049062375,1994-05-31,2014-03-10
HI0170090054,1994-05-31,2014-03-10
MA6170023570,1994-05-31,2014-03-10
PA3170022104,1994-05-31,2014-03-10
OHD980611875,1994-05-31,2014-03-10
WA8680030931,1994-05-31,2014-03-10
WAD009248287,1994-05-31,2014-03-10
KY8890008982,1994-05-31,2014-03-10
TX4890110527,1994-05-31,2014-03-10
MD7170024536,1994-05-31,2014-03-10
ME7170022019,1994-05-31,2014-03-10
WA2170023418,1994-05-31,2014-03-10
AL7210020742,1994-05-31,2014-03-10
WID980610190,1994-05-31,2014-03-10
MA2170022022,1994-05-31,2014-03-10
MDD000218008,1994-05-31,2014-03-10
FLD010596013,1994-05-31,2014-03-10
COD983778432,1994-05-31,2014-03-10
PAD980539126,1994-05-31,2014-03-10
WAD988519708,1994-05-31,2014-03-10
FL2170023244,1994-05-31,2014-03-10
MA0213820939,1994-05-31,2006-11-21
MID985574227,1994-05-31,2005-07-01
WA4170090001,1994-05-31,2005-06-14
WAD981767296,1994-05-31,1997-09-23
TND987768546,1994-05-31,1996-10-09
TXD008123168,1994-02-23,2014-03-10
KSD981710247,1992-10-14,2014-03-10
LAD000239814,1992-10-14,2014-03-10
GU6571999519,1992-10-14,2014-03-10
MOD981126899,1992-10-14,2014-03-10
NED981499312,1992-10-14,2014-03-10
PAD980419097,1992-10-14,2014-03-10
PAD981740061,1992-10-14,2014-03-10
PAD077087989,1992-10-14,2014-03-10
FLD053502696,1992-10-14,2014-03-10
CA9800013030,1992-10-14,2014-03-10
NYD986882660,1992-10-14,2014-03-10
CAD009106527,1992-10-14,2014-03-10
TN4210020570,1992-10-14,2014-03-10
WAD988466355,1992-10-14,2014-03-10
KYD985069954,1992-10-14,2014-03-10
VA7170024684,1992-10-14,2014-03-10
VA8170024170,1992-10-14,2014-03-10
NHD001091453,1992-10-14,2014-03-10
ORD980988307,1992-10-14,2014-03-10
ILD980606750,1992-10-14,2014-03-10
HI4170090076,1992-10-14,2014-03-10
ARD008052508,1992-10-14,2014-03-10
WID980610604,1992-10-14,2014-03-10
PAD981033285,1992-10-14,2014-03-10
NED084626100,1992-10-14,2014-03-10
WAD988475158,1992-10-14,2014-03-10
RID981063993,1992-10-14,2014-03-10
PAD982366957,1992-10-14,2005-08-16
CAD981995947,1992-10-14,2004-09-28
ARD980496723,1992-10-14,2004-09-28
UTD093119196,1992-10-14,2003-06-30
PAD987341716,1992-10-14,2002-04-18
WA5210890096,1992-10-14,1995-05-25
NJD980755623,1991-09-25,2014-03-10
CAD095989778,1991-02-11,2014-03-10
ILD980823991,1991-02-11,2014-03-10
UTD081834277,1991-02-11,2014-03-10
CAD009138488,1991-02-11,2014-03-10
UTD000716399,1991-02-11,2014-03-10
NED981713837,1990-08-30,2014-03-10
VAD980551683,1990-08-30,2014-03-10
ILD980607055,1990-08-30,2014-03-10
CAT080034234,1990-08-30,2014-03-10
TX7572024605,1990-08-30,2014-03-10
MID006007306,1990-08-30,2014-03-10
AZD008399263,1990-08-30,2014-03-10
FLD004574190,1990-08-30,2014-03-10
WA5170027291,1990-08-30,2014-03-10
ILD021440375,1990-08-30,2014-03-10
WIT560010118,1990-08-30,2014-03-10
KYD045738291,1990-08-30,2014-03-10
MID980678627,1990-08-30,2014-03-10
NVD980813646,1990-08-30,2014-03-10
ILD981781065,1990-08-30,2014-03-10
WAD980836662,1990-08-30,2014-03-10
DED980714141,1990-08-30,2014-03-10
NJD980484653,1990-08-30,2014-03-10
COD007431620,1990-08-30,2014-03-10
LAD072606627,1990-08-30,2014-03-10
IND000715490,1990-08-30,2014-03-10
CAD980498455,1990-08-30,2014-03-10
GAD990741092,1990-08-30,2014-03-10
PAD981740004,1990-08-30,2014-03-10
IDD984666610,1990-08-30,2014-03-10
CA1570024504,1990-08-30,2014-03-10
SD2571924644,1990-08-30,2014-03-10
AK8570028649,1990-08-30,2014-03-10
IAD981124167,1990-08-30,2014-03-10
NJ9690510020,1990-08-30,2014-03-10
KYD980844625,1990-08-30,2014-03-10
KS6214020756,1990-08-30,2014-03-10
AK6210022426,1990-08-30,2014-03-10
KYD980501076,1990-08-30,2014-03-10
NJD053102232,1990-08-30,2014-03-10
FL7570024037,1990-08-30,2014-03-10
CAD980736284,1990-08-30,2014-03-10
CAD041472341,1990-08-30,2014-03-10
IA7213820445,1990-08-30,2014-03-10
ILD980824015,1990-08-30,2014-03-10
DED980552244,1990-08-30,2014-03-10
CA2890090002,1990-08-30,2014-03-10
NMD980750020,1990-08-30,2014-03-10
TX6213820529,1990-08-30,2014-03-10
FLD981019235,1990-08-30,2014-03-10
ILD980497788,1990-08-30,2014-03-10
ARD980864110,1990-08-30,2014-03-10
IDD081830994,1990-08-30,2014-03-10
ID3572124557,1990-08-30,2014-03-10
WYD981546005,1990-08-30,2014-03-10
NJ0170022172,1990-08-30,2014-03-10
NE6211890011,1990-08-30,2014-03-10
CTD980906515,1990-08-30,2014-03-10
WAD000641548,1990-08-30,2014-03-10
PAD980508816,1990-08-30,2014-03-10
MOD980686281,1990-08-30,2014-03-10
PAD980692594,1990-08-30,2014-03-10
SCD002601656,1990-08-30,2014-03-10
MID006031348,1990-08-30,2014-03-10
IAD980852578,1990-08-30,2014-03-10
NMD980622773,1990-08-30,2014-03-10
OHD980610042,1990-08-30,2014-03-10
NYD980535181,1990-08-30,2014-03-10
WAD980639462,1990-08-30,2014-03-10
NY0213820830,1990-08-30,2014-03-10
CAD980893275,1990-08-30,2014-03-10
ALD007454085,1990-08-30,2014-03-10
IND980997639,1990-08-30,2014-03-10
PA5213820892,1990-08-30,2014-03-10
UT3213820894,1990-08-30,2014-03-10
CA4971520834,1990-08-30,2014-03-10
ORD009049412,1990-08-30,2014-03-10
WID980901235,1990-08-30,2014-03-10
CAD980893234,1990-08-30,2014-03-10
PAD005000575,1990-08-30,2014-03-10
MOD079900932,1990-08-30,2014-03-10
GAD003269578,1990-08-30,2014-03-10
ILD980824031,1990-08-30,2013-04-22
ILD980824007,1990-08-30,2010-02-08
AKD980988158,1990-08-30,2006-09-25
UTD980951388,1990-08-30,2004-09-24
FLD052172954,1990-08-30,2002-11-18
AKD980978787,1990-08-30,2002-09-30
AZ0570024133,1990-08-30,2002-04-22
IAD022193577,1990-08-30,2001-11-13
IAD980630750,1990-08-30,2001-09-24
CAD980894679,1990-08-30,2001-08-29
IAD065210734,1990-08-30,2000-10-30
HI7210090026,1990-08-30,2000-08-10
SDD000823559,1990-08-30,1999-04-02
NJD980769301,1990-08-30,1998-12-29
FLD020536538,1990-08-30,1998-07-09
CTD981067317,1990-08-30,1997-07-02
DED981035520,1990-08-30,1997-07-01
IND980999791,1990-08-30,1996-09-06
FLD004146346,1990-08-30,1995-11-27
IAD980685804,1990-08-30,1995-09-25
IAD980852461,1990-08-30,1995-08-31
MND981191570,1990-08-30,1995-07-24
CAD981436363,1990-03-14,2014-03-10
MD2210020036,1990-02-21,2014-03-10
FLD004145140,1990-02-21,2014-03-10
ILD002994259,1990-02-21,2014-03-10
FLD981014368,1990-02-21,2014-03-10
VAD042916361,1990-02-21,2014-03-10
VAD990710410,1990-02-21,2014-03-10
MAD001026319,1990-02-21,2014-03-10
PAD003053709,1990-02-21,2014-03-10
SCD000447268,1990-02-21,2014-03-10
MID005107222,1990-02-21,2014-03-10
KYD980501019,1990-02-21,2014-03-10
TND044062222,1990-02-21,2014-03-10
NYD010968014,1990-02-21,2014-03-10
CAD009212838,1990-02-21,2014-03-10
ILD980606305,1990-02-21,2014-03-10
DED980555122,1990-02-21,2014-03-10
CA6170023208,1990-02-21,2014-03-10
WY5571924179,1990-02-21,2014-03-10
NCD095458527,1990-02-21,2014-03-10
CA7210020676,1990-02-21,2014-03-10
CA2570024453,1990-02-21,2014-03-10
ILD980605836,1990-02-21,2014-03-10
SCD058753971,1990-02-21,2014-03-10
CAD980884209,1990-02-21,2014-03-10
MID005341714,1990-02-21,2014-03-10
IND980500292,1990-02-21,2014-03-10
NYD000813428,1990-02-21,2014-03-10
MID006016703,1990-02-21,2014-03-10
CTD001153923,1990-02-21,2014-03-10
ME9570024522,1990-02-21,2014-03-10
WID078934403,1990-02-21,2014-03-10
MID000775957,1990-02-21,2014-03-10
MOD980965982,1990-02-21,2014-03-10
MID072569510,1990-02-21,2014-03-10
WA5170090059,1990-02-21,2014-03-10
NYD980664361,1990-02-21,2014-03-10
PAD057152365,1990-02-21,2014-03-10
OKD091598870,1990-02-21,2014-03-10
WAD009249210,1990-02-21,2014-03-10
VTD981062441,1990-02-21,2014-03-10
WAD991281874,1990-02-21,2014-03-10
NH7570024847,1990-02-21,2014-03-10
NJ3210020704,1990-02-21,2014-03-10
FLD004054284,1990-02-21,2014-03-10
ALD980844385,1990-02-21,2014-03-10
CA7210020759,1990-02-21,2014-03-10
SCD980844005,1990-02-21,2014-03-10
MED980504393,1990-02-21,2014-03-10
PAD980692487,1990-02-21,2014-03-10
SCD003354412,1990-02-21,2014-03-10
MID980609341,1990-02-21,2014-03-10
SCD980558050,1990-02-21,2014-03-10
CAD009159088,1990-02-21,2014-03-10
MO5210021288,1990-02-21,2014-03-10
AZ0971590062,1990-02-21,2014-03-10
CAD981171523,1990-02-21,2013-10-31
OKD980620868,1990-02-21,2013-09-26
GAD095840674,1990-02-21,2006-09-19
DED980705545,1990-02-21,2004-03-29
MAD980520670,1990-02-21,2002-01-29
IAD005291182,1990-02-21,2001-01-22
KYD006371074,1990-02-21,2000-10-27
WAD980982557,1990-02-21,1999-08-31
FLD980494660,1990-02-21,1998-06-22
WAD027315621,1990-02-21,1997-09-26
WAD009045279,1990-02-21,1996-09-30
KSD007241656,1990-02-21,1996-04-29
WA6170090058,1990-02-21,1995-09-21
VAD980917983,1990-02-21,1995-01-24
ORD009051442,1990-02-21,1994-11-14
MID980992952,1990-02-21,1992-12-23
CO7570090038,1989-11-21,2014-03-10
CA8170024261,1989-11-21,2014-03-10
NY7890008975,1989-11-21,2014-03-10
CA2170023533,1989-11-21,2014-03-10
FL5170022474,1989-11-21,2014-03-10
RI6170022036,1989-11-21,2014-03-10
AK1570028646,1989-11-21,2014-03-10
OH6890008976,1989-11-21,2014-03-10
NYD981560923,1989-11-21,2014-03-10
MA7210025154,1989-11-21,2014-03-10
WA7210090067,1989-11-21,2014-03-10
ID4890008952,1989-11-21,2014-03-10
FL6170024412,1989-11-21,2014-03-10
CA4570024527,1989-11-21,2014-03-10
GA7170023694,1989-11-21,2014-03-10
UT3890090035,1989-11-21,2014-03-10
OH6890008984,1989-11-21,2014-03-10
MN3170022914,1989-11-21,2014-03-10
RI6170085470,1989-11-21,2014-03-10
TN1890090003,1989-11-21,2014-03-10
MA2570024487,1989-11-21,2014-03-10
FL9170024567,1989-11-21,2014-03-10
NY4571924774,1989-11-21,2014-03-10
SC1890008989,1989-11-21,2014-03-10
CA5570024575,1989-11-21,2014-03-10
CA1170090087,1989-11-21,2014-03-10
AZ7570028582,1989-11-21,2014-03-10
WA1891406349,1989-11-21,1996-09-23
NYD001667872,1989-11-21,1995-03-24
PAD004351003,1989-10-04,2014-03-10
MD3210021355,1989-10-04,2014-03-10
FLD980221857,1989-10-04,2014-03-10
MID980504450,1989-10-04,2014-03-10
WAD057311094,1989-10-04,2014-03-10
CTD980732333,1989-10-04,2014-03-10
MID017188673,1989-10-04,2014-03-10
PAD980705107,1989-10-04,2014-03-10
NCD981026479,1989-10-04,2014-03-10
VTD980520092,1989-10-04,2014-03-10
NJD078251675,1989-10-04,2014-03-10
CAD052384021,1989-10-04,2014-03-10
VAD089027973,1989-10-04,2014-03-10
NC6170022580,1989-10-04,2014-03-10
NMD980749378,1989-10-04,2014-03-10
FLD055945653,1989-10-04,2014-03-10
PAD093730174,1989-10-04,2014-03-10
MOD000829705,1989-10-04,2014-03-10
PAD002360444,1989-10-04,2014-03-10
VAD059165282,1989-10-04,2014-03-10
DED980693550,1989-10-04,2014-03-10
CTD001452093,1989-10-04,2014-03-10
PAD980830533,1989-10-04,2014-03-10
IAD005279039,1989-10-04,2014-03-10
CAD097012298,1989-10-04,2014-03-10
GAD990855074,1989-10-04,2014-03-10
CAD980636914,1989-10-04,2014-03-10
CTD108960972,1989-10-04,2014-03-10
NCD981927502,1989-10-04,2014-03-10
WAD001865450,1989-10-04,2014-03-10
WA3890090076,1989-10-04,2014-03-10
WA1890090078,1989-10-04,2014-03-10
WA2890090077,1989-10-04,2014-03-10
CAD000625731,1989-10-04,2014-03-10
PAD980829493,1989-10-04,2014-03-10
CAD009103318,1989-10-04,2014-03-10
NCD122263825,1989-10-04,2014-03-10
IDD041310707,1989-10-04,2014-03-10
MID043681840,1989-10-04,2014-03-10
ILD005451711,1989-10-04,2014-03-10
SCD980558043,1989-10-04,2014-03-10
NED068645696,1989-10-04,2014-03-10
CAD029295706,1989-10-04,2014-03-10
TND075453688,1989-10-04,2014-03-10
GAD991275686,1989-10-04,2014-03-10
CAD008242711,1989-10-04,2014-03-10
AZD009004177,1989-10-04,2014-03-10
NCD991278953,1989-10-04,2014-03-10
PA6170024545,1989-10-04,2014-03-10
WA1170023419,1989-10-04,2014-03-10
PAD002342475,1989-10-04,2014-03-10
PAD079160842,1989-10-04,2014-03-10
PAD980229298,1989-10-04,2014-03-10
CAD980636781,1989-10-04,2014-03-10
CTD051316313,1989-10-04,2014-03-10
IND006377048,1989-10-04,2014-03-10
PAD039017694,1989-10-04,2014-03-10
PAD002353969,1989-10-04,2014-03-10
CO7890010526,1989-10-04,2014-03-10
RID980521025,1989-10-04,2014-03-10
WID980610141,1989-10-04,2014-03-10
VAD003117389,1989-10-04,2014-03-10
NJD980766828,1989-10-04,2014-03-10
MOD980633176,1989-10-04,2014-03-10
FLD000648055,1989-10-04,2014-03-10
CAD990832735,1989-10-04,2014-03-10
PAD073613663,1989-10-04,2014-03-10
NYD980509285,1989-10-04,2014-03-10
MED042143883,1989-10-04,2014-03-10
UTD980667240,1989-10-04,2014-03-10
FLD981021470,1989-10-04,2014-03-10
ILD980605943,1989-10-04,2014-03-10
OH7571724312,1989-10-04,2014-03-10
PAD000651810,1989-10-04,2008-11-14
FLD004126520,1989-10-04,2007-10-26
SCD980840698,1989-10-04,2007-10-09
TXD089793046,1989-10-04,2006-08-21
PAD000439083,1989-10-04,2004-01-29
VAD980552095,1989-10-04,2001-09-28
DED980494637,1989-10-04,2001-09-28
MOD980631113,1989-10-04,2001-09-20
ILD980996789,1989-10-04,2001-01-08
PAD981939200,1989-10-04,2000-11-01
MOD000830554,1989-10-04,2000-10-30
FLD080174402,1989-10-04,2000-07-28
LAD981058019,1989-10-04,2000-03-07
VTD980520118,1989-10-04,1999-09-29
VTD000509174,1989-10-04,1999-09-29
PR4170027383,1989-10-04,1998-10-07
PAD041421223,1989-10-04,1996-10-02
WA4890090075,1989-10-04,1996-09-30
NJD045653854,1989-10-04,1995-09-29
NMD980749980,1989-10-04,1992-10-14
NCD024644494,1989-03-31,2014-03-10
NCD980843346,1989-03-31,2014-03-10
MID006522791,1989-03-31,2014-03-10
MID006029102,1989-03-31,2014-03-10
ARD084930148,1989-03-31,2014-03-10
VTD981064223,1989-03-31,2014-03-10
PAD047726161,1989-03-31,2014-03-10
MID006030373,1989-03-31,2014-03-10
VTD003965415,1989-03-31,2014-03-10
MDD980504195,1989-03-31,2014-03-10
PAD981034705,1989-03-31,2014-03-10
NYD981184229,1989-03-31,2014-03-10
IND001213503,1989-03-31,2014-03-10
PAD981038052,1989-03-31,2014-03-10
IND980607881,1989-03-31,2014-03-10
PAD980539712,1989-03-31,2014-03-10
SCD980839542,1989-03-31,2014-03-10
NCD981475932,1989-03-31,2014-03-10
NHD001079649,1989-03-31,2014-03-10
IND980999635,1989-03-31,2014-03-10
NJD053280160,1989-03-31,2014-03-10
NJD063160667,1989-03-31,2014-03-10
VAD980539878,1989-03-31,2014-03-10
WID052906088,1989-03-31,2014-03-10
PAD002390748,1989-03-31,2014-03-10
WAD980511539,1989-03-31,2014-03-10
NJD981490261,1989-03-31,2014-03-10
ILT180011975,1989-03-31,2014-03-10
NYD980506901,1989-03-31,2014-03-10
MID980609440,1989-03-31,2014-03-10
NJD002493054,1989-03-31,2014-03-10
NCD003200383,1989-03-31,2014-03-10
IND064703200,1989-03-31,2014-03-10
GAD980838619,1989-03-31,2014-03-10
NYD000512459,1989-03-31,2014-03-10
SCD980558142,1989-03-31,2014-03-10
CAD981997752,1989-03-31,2014-03-10
WID083290981,1989-03-31,2014-03-10
CAD981434517,1989-03-31,2014-03-10
PAD096834494,1989-03-31,2014-03-10
PAD980692693,1989-03-31,2014-03-10
PAD980926976,1989-03-31,2014-03-10
PAD002498632,1989-03-31,2014-03-10
MID980476907,1989-03-31,2014-03-10
KSD000829846,1989-03-31,2014-03-10
NJD981179047,1989-03-31,2014-03-10
NCD981023260,1989-03-31,2014-03-10
VAD071040752,1989-03-31,2014-03-10
NYD982272734,1989-03-31,2014-03-10
TXD062132147,1989-03-31,2014-03-10
NYD980507677,1989-03-31,2014-03-10
TXD980873327,1989-03-31,2014-03-10
ILD981000417,1989-03-31,2014-03-10
PAD000441337,1989-03-31,2014-03-10
GAD042101261,1989-03-31,2014-03-10
WID980610307,1989-03-31,2014-03-10
NHD981063860,1989-03-31,2014-03-10
KYD981028350,1989-03-31,2014-03-10
ILD048306138,1989-03-31,2014-03-10
OHD004179339,1989-03-31,2014-03-10
CAD063020143,1989-03-31,2014-03-10
TND980844781,1989-03-31,2014-03-10
ILD980500102,1989-03-31,2014-03-10
NCD981021157,1989-03-31,2012-09-20
CAD980816466,1989-03-31,2009-09-25
OKD007188717,1989-03-31,2008-08-21
OKD980696470,1989-03-31,2008-08-21
PAD980538649,1989-03-31,2007-03-19
TXD980625453,1989-03-31,2006-12-28
IAD980632509,1989-03-31,2005-09-26
CTD980669261,1989-03-31,2005-09-23
IAD085824688,1989-03-31,2004-09-24
NJD981178411,1989-03-31,2003-04-21
KYD981469794,1989-03-31,2001-09-14
NMD981155930,1989-03-31,2001-07-23
LAD980750137,1989-03-31,2001-07-23
NYD980506679,1989-03-31,2001-07-06
LAD980749139,1989-03-31,2000-01-03
ORD068782820,1989-03-31,1999-11-04
GAD980495402,1989-03-31,1999-03-10
IND980607360,1989-03-31,1997-07-03
NYD981486947,1989-03-31,1997-04-25
NDD980959548,1989-03-31,1997-04-01
MID980274179,1989-03-31,1997-03-25
AKD004904215,1989-03-31,1996-07-26
IND016395899,1989-03-31,1996-07-09
MID980609366,1989-03-31,1996-04-10
NYD072366453,1989-03-31,1995-09-29
FLD041184383,1989-03-31,1995-04-04
NYD981561954,1989-03-31,1994-09-20
NYD980768683,1989-03-31,1994-09-09
WAD040187890,1989-03-31,1994-08-23
KSD007135429,1989-03-31,1993-11-09
AL3210020027,1989-03-13,2014-03-10
DE8570024010,1989-03-13,2014-03-10
WA9571924647,1989-03-13,2014-03-10
IL0210090049,1989-03-13,2014-03-10
PA2210090054,1989-03-13,2014-03-10
LA0213820533,1989-03-13,2014-03-10
IL3210020803,1989-03-13,2014-03-10
NMD097960272,1989-03-13,1996-12-20
AL6210020008,1987-07-22,2014-03-10
WID980610380,1987-07-22,2014-03-10
CAD042728840,1987-07-22,2014-03-10
TND980468557,1987-07-22,2014-03-10
PAD061105128,1987-07-22,2014-03-10
WA7170027265,1987-07-22,2014-03-10
PAD003047974,1987-07-22,2014-03-10
ME8170022018,1987-07-22,2014-03-10
PAD980508451,1987-07-22,2014-03-10
PAD021449244,1987-07-22,2014-03-10
VAD049957913,1987-07-22,2014-03-10
NCD003188828,1987-07-22,2014-03-10
NCD003188844,1987-07-22,2014-03-10
CA3570024551,1987-07-22,2014-03-10
NCD980840409,1987-07-22,2014-03-10
NE2213820234,1987-07-22,2014-03-10
NJD000565531,1987-07-22,2014-03-10
NJD011717584,1987-07-22,2014-03-10
NJD002168748,1987-07-22,2014-03-10
VA3971520751,1987-07-22,2014-03-10
VAD980554984,1987-07-22,2014-03-10
NYD002050110,1987-07-22,2014-03-10
VAD003125374,1987-07-22,2014-03-10
NY4571924451,1987-07-22,2014-03-10
WID980610059,1987-07-22,2014-03-10
FLD000602334,1987-07-22,2014-03-10
AZD980735666,1987-07-22,2014-03-10
UT0571724350,1987-07-22,2014-03-10
WID980511919,1987-07-22,2014-03-10
IL7213820460,1987-07-22,2014-03-10
PAD054142781,1987-07-22,2014-03-10
MO3213890012,1987-07-22,2014-03-10
CA2890012584,1987-07-22,2014-03-10
PA6213820503,1987-07-22,2014-03-10
TX7213821831,1987-07-22,2014-03-10
NYD980535124,1987-07-22,2014-03-10
CA8570024143,1987-07-22,2014-03-10
CA4570024337,1987-07-22,2014-03-10
TN0210020582,1987-07-22,2014-03-10
CA2170090078,1987-07-22,2014-03-10
CAD049236201,1987-07-22,2014-03-10
MTD006230635,1987-07-22,2014-03-10
NHD980503361,1987-07-22,2014-03-10
CAD041472986,1987-07-22,2014-03-10
NJ7170023744,1987-07-22,2014-03-10
DED043958388,1987-07-22,2014-03-10
CA4570024345,1987-07-22,2014-03-10
KSD980631766,1987-07-22,2014-03-10
UT9210020922,1987-07-22,2014-03-10
OHD004379970,1987-07-22,2014-03-10
ILD005252432,1987-07-22,2014-03-10
FLD980798698,1987-07-22,2014-03-10
PAD051395499,1987-07-22,2014-03-10
NYD980507735,1987-07-22,2014-03-10
MND980904064,1987-07-22,2014-03-10
GA1570024330,1987-07-22,2014-03-10
MID006028062,1987-07-22,2014-03-10
CO5210020769,1987-07-22,2014-03-10
NYD981486954,1987-07-22,2014-03-10
CA0210020780,1987-07-22,2014-03-10
IL8143609487,1987-07-22,2014-03-10
CA8210020832,1987-07-22,2014-03-10
IAD980630560,1987-07-22,2014-03-10
WID980902969,1987-07-22,2014-03-10
DED041212473,1987-07-22,2014-03-10
CAD009111444,1987-07-22,2014-03-10
OK1571724391,1987-07-22,2014-03-10
WID980610299,1987-07-22,2014-03-10
OR6213820917,1987-07-22,2014-03-10
CAD980884357,1987-07-22,2014-03-10
MO3210090004,1987-07-22,2014-03-10
PAD980537773,1987-07-22,2014-03-10
MDD980504344,1987-07-22,2014-03-10
WAD009248295,1987-07-22,2014-03-10
NJ2210020275,1987-07-22,2012-09-24
DED980704860,1987-07-22,2011-08-02
ARD981055809,1987-07-22,2010-10-12
IND980504005,1987-07-22,2008-10-20
NYD980534556,1987-07-22,2005-09-23
CAD990793887,1987-07-22,2005-04-21
PAD980830715,1987-07-22,2005-02-14
PAD075993378,1987-07-22,2001-11-16
WID980616841,1987-07-22,2001-08-20
PAD981034630,1987-07-22,2000-11-30
OKD980620967,1987-07-22,2000-11-21
SCD037398120,1987-07-22,2000-10-13
ARD980809941,1987-07-22,2000-03-14
LAD980879449,1987-07-22,1999-11-16
PAD980829329,1987-07-22,1999-09-20
SCD980799456,1987-07-22,1998-09-10
MND981090483,1987-07-22,1997-10-23
MN8570024275,1987-07-22,1996-12-16
MND981002256,1987-07-22,1996-11-14
WA8570024200,1987-07-22,1996-09-26
KYD980501191,1987-07-22,1996-07-26
WA9214053465,1987-07-22,1995-05-22
MID981089915,1987-07-22,1995-03-20
CTD004532610,1987-07-22,1994-09-02
PAD980829261,1987-07-22,1990-05-31
CAD048634059,1986-06-10,2014-03-10
TND007018799,1986-06-10,2014-03-10
NYD980535652,1986-06-10,2014-03-10
VAD070358684,1986-06-10,2014-03-10
CAD048645444,1986-06-10,2014-03-10
MOD980860522,1986-06-10,2014-03-10
PAD980831812,1986-06-10,2014-03-10
NCD044440303,1986-06-10,2014-03-10
NYD980780670,1986-06-10,2014-03-10
NCD003446721,1986-06-10,2014-03-10
RID980520183,1986-06-10,2014-03-10
NJD980785638,1986-06-10,2014-03-10
NYD002044584,1986-06-10,2014-03-10
NHD064424153,1986-06-10,2014-03-10
NYD980768691,1986-06-10,2014-03-10
NYD980528475,1986-06-10,2014-03-10
PAD981035009,1986-06-10,2014-03-10
COD081961518,1986-06-10,2014-03-10
NYD980780746,1986-06-10,2014-03-10
NYD000511857,1986-06-10,2014-03-10
IND980679542,1986-06-10,2014-03-10
MND038384004,1986-06-10,2014-03-10
NJD041828906,1986-06-10,2014-03-10
NYD980768717,1986-06-10,2014-03-10
MID017075136,1986-06-10,2014-03-10
DED980830954,1986-06-10,2014-03-10
NED980862668,1986-06-10,2014-03-10
MAD980523336,1986-06-10,2014-03-10
NYD980785661,1986-06-10,2014-03-10
NYD980780779,1986-06-10,2014-03-10
NYD002920312,1986-06-10,2014-03-10
PAD980830897,1986-06-10,2014-03-10
MTD006232276,1986-06-10,2014-03-10
OHD000377911,1986-06-10,2014-03-10
CAD061620217,1986-06-10,2014-03-10
CAT000612184,1986-06-10,2014-03-10
CAD092212497,1986-06-10,2014-03-10
ALD041906173,1986-06-10,2014-03-10
NCD980729602,1986-06-10,2014-03-10
NYD980506927,1986-06-10,2014-03-10
MDD980923783,1986-06-10,2014-03-10
TXD980623904,1986-06-10,2014-03-10
MND059680165,1986-06-10,2014-03-10
VAD007972482,1986-06-10,2014-03-10
IAD000606038,1986-06-10,2014-03-10
MOD980853519,1986-06-10,2014-03-10
WID980901243,1986-06-10,2014-03-10
NYD000337295,1986-06-10,2014-03-10
MND980904072,1986-06-10,2014-03-10
KYD980729107,1986-06-10,2014-03-10
WAD980511661,1986-06-10,2014-03-10
IND980679559,1986-06-10,2014-03-10
ARD980745665,1986-06-10,2014-03-10
WAD980638910,1986-06-10,2014-03-10
IAD069625655,1986-06-10,2014-03-10
PAD980539068,1986-06-10,2014-03-10
NJD980529408,1986-06-10,2014-03-10
MID980702989,1986-06-10,2014-03-10
MTD021997689,1986-06-10,2014-03-10
PAD980691372,1986-06-10,2014-03-10
WID006196174,1986-06-10,2014-03-10
NYD000511451,1986-06-10,2014-03-10
ILD096731468,1986-06-10,2014-03-10
MID005480900,1986-06-10,2014-03-10
NCD980557656,1986-06-10,2014-03-10
TXD980873343,1986-06-10,2014-03-10
WAD980511778,1986-06-10,2014-03-10
TXD980867279,1986-06-10,2014-03-10
CAT080012024,1986-06-10,2014-03-10
WVD000850404,1986-06-10,2014-03-10
ILD980606685,1986-06-10,2014-03-10
FLD004091807,1986-06-10,2014-03-10
TXD980873350,1986-06-10,2014-03-10
UTD980718670,1986-06-10,2014-03-10
NYD980768774,1986-06-10,2014-03-10
MOD980860555,1986-06-10,2014-03-10
CAD009205097,1986-06-10,2014-03-10
NYD002232957,1986-06-10,2014-03-10
MAD980524169,1986-06-10,2014-03-10
MID005340088,1986-06-10,2014-03-10
CAD980894893,1986-06-10,2014-03-10
CAD980894901,1986-06-10,2014-03-10
CAD980894976,1986-06-10,2014-03-10
OHD093895787,1986-06-10,2014-03-10
NYD980535165,1986-06-10,2014-03-10
WID980996367,1986-06-10,2014-03-10
MAD980503973,1986-06-10,2014-03-10
PAD980830889,1986-06-10,2014-03-10
KYD097267413,1986-06-10,2014-03-10
MOD980854111,1986-06-10,2014-03-10
CAD980894885,1986-06-10,2014-03-10
TXD980810386,1986-06-10,2014-03-10
MID069826170,1986-06-10,2014-03-10
WID980901219,1986-06-10,2014-03-10
KSD980862726,1986-06-10,2014-03-10
TXD008056152,1986-06-10,2014-03-10
MID044567162,1986-06-10,2014-03-10
NHD989090469,1986-06-10,2014-03-10
MID980901946,1986-06-10,2014-03-10
COD007063274,1986-06-10,2014-03-10
MOD980968341,1986-06-10,2014-03-10
OHD980794606,1986-06-10,2014-03-10
IAD980630487,1986-06-10,2014-03-10
NYD980509376,1986-06-10,2014-03-10
MND981002249,1986-06-10,2014-03-10
NJD054981337,1986-06-10,2014-03-10
WID980993521,1986-06-10,2014-03-10
CAD001864081,1986-06-10,2014-03-10
PAD043882281,1986-06-10,2014-03-10
PAD003005014,1986-06-10,2014-03-10
IND980607626,1986-06-10,2014-01-24
MID060179587,1986-06-10,2013-01-14
NYD991292004,1986-06-10,2011-09-26
MAD980670566,1986-06-10,2011-05-31
NYD001533165,1986-06-10,2010-09-13
TXD980864649,1986-06-10,2007-10-15
MID980791461,1986-06-10,2007-03-20
NED980862718,1986-06-10,2006-11-20
CAD009106220,1986-06-10,2006-08-21
VAD980831796,1986-06-10,2005-09-30
NYD980762520,1986-06-10,2005-09-27
WID980901227,1986-06-10,2005-09-06
MDD980704852,1986-06-10,2005-04-05
CAD980894984,1986-06-10,2004-10-12
FLD000833368,1986-06-10,2004-10-01
TXD980697114,1986-06-10,2004-07-19
OHD980903447,1986-06-10,2002-11-12
OHD057243610,1986-06-10,2001-11-05
NYD002059517,1986-06-10,2001-10-15
MAD980525240,1986-06-10,2001-07-23
MND980613780,1986-06-10,2001-02-06
MND980034516,1986-06-10,2000-10-06
MSD980840045,1986-06-10,2000-09-27
MDD064882889,1986-06-10,2000-07-18
NYD980780795,1986-06-10,2000-03-20
OKD980748446,1986-06-10,2000-03-17
UTD980667208,1986-06-10,2000-02-28
IND980794549,1986-06-10,1999-10-04
NYD001485226,1986-06-10,1999-09-30
WAD980833974,1986-06-10,1999-09-28
COD980806277,1986-06-10,1999-09-23
RID980731459,1986-06-10,1999-08-13
FLD980844179,1986-06-10,1999-05-18
MND000245795,1986-06-10,1998-06-23
NJD980769350,1986-06-10,1998-05-07
WAD980722789,1986-06-10,1997-09-22
MND980898068,1986-06-10,1997-08-01
IND006038764,1986-06-10,1997-07-14
PAD980538763,1986-06-10,1997-07-10
PAD000436436,1986-06-10,1996-12-27
CAD065021594,1986-06-10,1996-11-21
MND980904056,1986-06-10,1996-10-17
ORD052221025,1986-06-10,1996-07-05
MND981088180,1986-06-10,1996-05-07
MND980904049,1986-06-10,1996-04-26
NYD000511576,1986-06-10,1996-02-08
TXD055337281,1986-06-10,1995-10-04
TXD980699656,1986-06-10,1995-09-28
MND000686071,1986-06-10,1995-06-15
NYD075784165,1986-06-10,1995-05-01
TXD980864763,1986-06-10,1995-03-23
MND000874354,1986-06-10,1995-02-15
MOD007163108,1986-06-10,1994-09-08
NYD980780878,1986-06-10,1993-05-28
MND980904023,1986-06-10,1992-12-30
NYD980768675,1986-06-10,1992-10-14
KSD980686174,1986-06-10,1992-10-14
INT190010876,1986-06-10,1991-02-11
ILD003817137,1986-06-10,1991-02-11
WAD980723506,1986-06-10,1988-12-23
PAD980830921,1985-09-16,1991-09-10
NJD980785646,1985-02-14,2009-09-02
NJD980785653,1985-02-14,2009-09-02
KYD041981010,1984-09-21,2014-03-10
IND016360265,1984-09-21,2014-03-10
WAD980833065,1984-09-21,2014-03-10
MND980823975,1984-09-21,2014-03-10
CAD980496863,1984-09-21,2014-03-10
IND006418651,1984-09-21,2014-03-10
PAD980691794,1984-09-21,2014-03-10
COD000110254,1984-09-21,2014-03-10
MID980410617,1984-09-21,2014-03-10
FLD980709356,1984-09-21,2014-03-10
NJD047321443,1984-09-21,2014-03-10
ALD001221902,1984-09-21,2014-03-10
WID980610646,1984-09-21,2014-03-10
MID980002273,1984-09-21,2014-03-10
NJD980761373,1984-09-21,2014-03-10
WID980820062,1984-09-21,2014-03-10
NJD980528996,1984-09-21,2014-03-10
PAD980508832,1984-09-21,2014-03-10
MTD006230346,1984-09-21,2014-03-10
PAD980690549,1984-09-21,2014-03-10
WID980820054,1984-09-21,2014-03-10
MID005068143,1984-09-21,2014-03-10
NJD980761365,1984-09-21,2014-03-10
PRD980763783,1984-09-21,2014-03-10
MND051441731,1984-09-21,2014-03-10
NYD091972554,1984-09-21,2014-03-10
TXD980748453,1984-09-21,2014-03-10
WAD980514608,1984-09-21,2014-03-10
PAD009862939,1984-09-21,2014-03-10
GAD980556906,1984-09-21,2014-03-10
NYD980763841,1984-09-21,2014-03-10
PAD980508493,1984-09-21,2014-03-10
MAD051787323,1984-09-21,2014-03-10
WID000712950,1984-09-21,2014-03-10
WID980614044,1984-09-21,2014-03-10
MND044799856,1984-09-21,2014-03-10
SCD094995503,1984-09-21,2014-03-10
NHD062002001,1984-09-21,2014-03-10
CTD980670814,1984-09-21,2014-03-10
WID006073225,1984-09-21,2014-03-10
CAD009112087,1984-09-21,2014-03-10
NJD048044325,1984-09-21,2014-03-10
WID058735994,1984-09-21,2014-03-10
WID056247208,1984-09-21,2014-03-10
SCD991279324,1984-09-21,2014-03-10
COD042167858,1984-09-21,2014-03-10
COD980499248,1984-09-21,2014-03-10
MND006192694,1984-09-21,2014-03-10
WID980820070,1984-09-21,2014-03-10
MID980506562,1984-09-21,2014-03-10
OHD980611800,1984-09-21,2014-03-10
WID980823082,1984-09-21,2014-03-10
PAD980231690,1984-09-21,2014-03-10
WID039052626,1984-09-21,2014-03-10
WID000713180,1984-09-21,2014-03-10
NJD002362705,1984-09-21,2014-03-10
IND050530872,1984-09-21,2014-03-10
MND006154017,1984-09-21,2014-03-10
WID006100275,1984-09-21,2014-03-10
CTD980670806,1984-09-21,2014-03-10
ALD008188708,1984-09-21,2014-03-10
WID980821656,1984-09-21,2014-03-10
SCD003362217,1984-09-21,2014-03-10
FLD032544587,1984-09-21,2014-03-10
MND980609572,1984-09-21,2014-03-10
LAD057482713,1984-09-21,2014-03-10
OHD000382663,1984-09-21,2014-03-10
WAD980511745,1984-09-21,2014-03-10
NJD047684451,1984-09-21,2014-03-10
IND000807107,1984-09-21,2014-03-10
NHD980671002,1984-09-21,2014-03-10
WID980820096,1984-09-21,2014-03-10
WID046536785,1984-09-21,2014-03-10
NJD002365930,1984-09-21,2014-03-10
NHD980671069,1984-09-21,2014-03-10
OHD071650592,1984-09-21,2014-03-10
MND039045430,1984-09-21,2014-03-10
MND057597940,1984-09-21,2014-03-10
ALD095688875,1984-09-21,2014-03-10
ALD008161176,1984-09-21,2014-03-10
MID980703011,1984-09-21,2014-03-10
MAD980731343,1984-09-21,2014-03-10
PAD980692024,1984-09-21,2014-03-10
ORD009043001,1984-09-21,2014-03-10
TXD980745574,1984-09-21,2014-03-10
OHD018392928,1984-09-21,2014-03-10
PRD980301154,1984-09-21,2014-03-10
PRD980763775,1984-09-21,2014-03-10
NJD980529879,1984-09-21,2014-03-10
NJD002385664,1984-09-21,2014-03-10
PAD980829527,1984-09-21,2014-03-10
SCD037405362,1984-09-21,2014-03-10
NJD980505887,1984-09-21,2014-03-10
NJD980505879,1984-09-21,2014-03-10
SCD980711279,1984-09-21,2014-01-06
SCD003353026,1984-09-21,2013-09-13
NJ1891837980,1984-09-21,2012-09-30
FLD980709802,1984-09-21,2012-02-27
GAD980496954,1984-09-21,2010-11-01
NJD980529002,1984-09-21,2009-10-13
NJD980532824,1984-09-21,2009-09-08
NJD980761357,1984-09-21,2008-05-08
NJD980529143,1984-09-21,2004-05-13
WID980610620,1984-09-21,2004-04-20
CAD000626176,1984-09-21,2002-09-18
NJD980532840,1984-09-21,2002-08-27
OKD980620983,1984-09-21,2002-07-18
NJD980761399,1984-09-21,2000-06-09
IDD098812878,1984-09-21,1999-11-04
PAD980693907,1984-09-21,1999-09-30
MND006252233,1984-09-21,1999-02-11
CAD980817217,1984-09-21,1998-04-24
GAD001700699,1984-09-21,1998-03-09
WID006183826,1984-09-21,1997-10-29
LAD980745541,1984-09-21,1997-09-29
IDD055030852,1984-09-21,1997-09-22
WID000808568,1984-09-21,1996-12-11
MND980704738,1984-09-21,1996-05-16
MSD980710941,1984-09-21,1996-02-16
SCD004773644,1984-09-21,1995-04-03
MND053417515,1984-09-21,1995-02-15
WID990829475,1984-09-21,1993-02-05
MND022949192,1984-09-21,1991-09-10
IND980684583,1984-09-21,1991-02-11
MID980701254,1984-09-21,1991-02-11
NJD980761381,1984-09-21,1989-02-22
FLD070864541,1984-09-21,1988-09-01
MND980792287,1984-09-21,1986-03-07
CAD980677355,1984-05-08,2014-03-10
CAD980818512,1984-05-08,2014-03-10
CAD980818579,1984-05-08,2014-03-10
CAD980817985,1984-05-08,2014-03-10
NJD030253355,1983-09-08,2014-03-10
ILD053219259,1983-09-08,2014-03-10
CAD980358832,1983-09-08,2014-03-10
OHD043730217,1983-09-08,2014-03-10
FLD008161994,1983-09-08,2014-03-10
NJD002173276,1983-09-08,2014-03-10
NYD002066330,1983-09-08,2014-03-10
MTD093291656,1983-09-08,2014-03-10
DED980494496,1983-09-08,2014-03-10
NHD980524086,1983-09-08,2014-03-10
MID980794382,1983-09-08,2014-03-10
KYD006370167,1983-09-08,2014-03-10
MAD001041987,1983-09-08,2014-03-10
LAD980745632,1983-09-08,2014-03-10
CTD072122062,1983-09-08,2014-03-10
ILD980497663,1983-09-08,2014-03-10
OHD980611735,1983-09-08,2014-03-10
PAD980539985,1983-09-08,2014-03-10
NJD063157150,1983-09-08,2014-03-10
NYD980652275,1983-09-08,2014-03-10
NJD980505176,1983-09-08,2014-03-10
NJD053292652,1983-09-08,2014-03-10
OHD980509657,1983-09-08,2014-03-10
IDD048340921,1983-09-08,2014-03-10
MND000686196,1983-09-08,2014-03-10
NJD980504997,1983-09-08,2014-03-10
MID062222997,1983-09-08,2014-03-10
ILD010236230,1983-09-08,2014-03-10
NJD048798953,1983-09-08,2014-03-10
COD980717938,1983-09-08,2014-03-10
SCD980558316,1983-09-08,2014-03-10
COD980717557,1983-09-08,2014-03-10
PAD000436261,1983-09-08,2014-03-10
MAD003809266,1983-09-08,2014-03-10
MID980477079,1983-09-08,2014-03-10
OHD074727793,1983-09-08,2014-03-10
NJD000607481,1983-09-08,2014-03-10
NJD980528889,1983-09-08,2014-03-10
NCD095459392,1983-09-08,2014-03-10
KSD980741862,1983-09-08,2014-03-10
VAD980712913,1983-09-08,2014-03-10
NJD001502517,1983-09-08,2014-03-10
CAD063015887,1983-09-08,2014-03-10
WAD980514541,1983-09-08,2014-03-10
FLD991279894,1983-09-08,2014-03-10
NJD094966611,1983-09-08,2014-03-10
WAD980726368,1983-09-08,2014-03-10
WAD980726301,1983-09-08,2014-03-10
NJD002141190,1983-09-08,2014-03-10
ILD980792303,1983-09-08,2014-03-10
TXD990707010,1983-09-08,2014-03-10
NJD980529416,1983-09-08,2014-03-10
RID980523070,1983-09-08,2014-03-10
DED980551667,1983-09-08,2014-03-10
DED000605972,1983-09-08,2014-03-10
COD980716955,1983-09-08,2014-03-10
IAD980687933,1983-09-08,2014-03-10
KYD980602155,1983-09-08,2014-03-10
KYD980601975,1983-09-08,2014-03-10
KSD980632301,1983-09-08,2014-03-10
PAD002384865,1983-09-08,2014-03-10
NHD980520191,1983-09-08,2014-03-10
NJD980654131,1983-09-08,2014-03-10
PAD003058047,1983-09-08,2014-03-10
MID980504716,1983-09-08,2014-03-10
OHD980509947,1983-09-08,2014-03-10
NJD980529085,1983-09-08,2014-03-10
MOD980633010,1983-09-08,2014-03-10
IND084259951,1983-09-08,2014-03-10
NJD980654222,1983-09-08,2014-03-10
NYD073675514,1983-09-08,2014-03-10
NJD980654107,1983-09-08,2014-03-10
OHD980614572,1983-09-08,2014-03-10
WVD047989207,1983-09-08,2014-03-10
PAD002345817,1983-09-08,2014-03-10
IND074315896,1983-09-08,2014-03-10
FLD050432251,1983-09-08,2014-03-10
MND006481543,1983-09-08,2014-03-10
WAD000643577,1983-09-08,2014-03-10
MID980410740,1983-09-08,2014-03-10
TXD980514814,1983-09-08,2014-03-10
WAD053614988,1983-09-08,2014-03-10
MOD980631139,1983-09-08,2014-03-10
NYD980593099,1983-09-08,2014-03-10
OHD980794630,1983-09-08,2014-03-10
MID980410823,1983-09-08,2014-03-10
ILD990817991,1983-09-08,2014-03-10
NYD980528335,1983-09-08,2014-03-10
NJD980529192,1983-09-08,2014-03-10
NJD980530109,1983-09-08,2014-03-10
MID017418559,1983-09-08,2014-03-10
MID980506281,1983-09-08,2014-03-10
MAD980732317,1983-09-08,2014-03-10
WAD980722839,1983-09-08,2014-03-10
OKD000400093,1983-09-08,2014-03-10
DED980713093,1983-09-08,2014-03-10
PAD002338010,1983-09-08,2014-03-10
MID980794408,1983-09-08,2014-03-10
NJD980505366,1983-09-08,2014-03-10
PAD980537716,1983-09-08,2014-03-10
NJD002349058,1983-09-08,2014-03-10
TXD980514996,1983-09-08,2014-03-10
MAD980732341,1983-09-08,2014-03-10
FLD004119681,1983-09-08,2014-03-10
NMD007860935,1983-09-08,2014-03-10
NYD980651087,1983-09-08,2014-03-10
NJD980654099,1983-09-08,2014-03-10
AZD980695969,1983-09-08,2014-03-10
MAD076580950,1983-09-08,2014-03-10
MID980794416,1983-09-08,2014-03-10
CAD980498612,1983-09-08,2014-03-10
NJD097400998,1983-09-08,2014-03-10
ILD005443544,1983-09-08,2014-03-10
PRD980512362,1983-09-08,2014-03-10
MID980506463,1983-09-08,2014-03-10
WAD000065508,1983-09-08,2014-03-10
NHD092059112,1983-09-08,2014-03-10
NYD980650667,1983-09-08,2014-03-10
MID000260281,1983-09-08,2014-03-10
PAD980691703,1983-09-08,2014-03-10
NJD049860836,1983-09-08,2014-03-10
NJD980505341,1983-09-08,2014-03-10
MND000819359,1983-09-08,2014-03-10
IND980500524,1983-09-08,2014-03-10
WAD050075662,1983-09-08,2014-03-10
RID093212439,1983-09-08,2014-03-10
NJD980505382,1983-09-08,2014-03-10
ILD980794333,1983-09-08,2014-03-10
CTD980521165,1983-09-08,2014-03-10
MND980792469,1983-09-08,2014-03-10
IND980794341,1983-09-08,2014-03-10
MTD980502736,1983-09-08,2014-03-10
MDD980691588,1983-09-08,2014-03-10
PAD980712798,1983-09-08,2014-03-10
NJD980505416,1983-09-08,2014-03-10
MID067340711,1983-09-08,2014-03-10
NJD980505424,1983-09-08,2014-03-10
PAD980508931,1983-09-08,2014-03-10
IND980794358,1983-09-08,2014-03-10
PAD014353445,1983-09-08,2014-03-10
IND980794366,1983-09-08,2014-03-10
COD980499255,1983-09-08,2014-03-10
NJD980529762,1983-09-08,2014-03-10
CAD980498695,1983-09-08,2014-03-10
MID005339676,1983-09-08,2014-03-10
MED980524078,1983-09-08,2014-03-10
NYD048148175,1983-09-08,2014-03-10
PAD046557096,1983-09-08,2014-03-10
NJD002517472,1983-09-08,2014-03-10
CAD000074120,1983-09-08,2014-03-10
FLD076027820,1983-09-08,2014-03-10
ARD092916188,1983-09-08,2014-03-10
IND980615421,1983-09-08,2014-03-10
MTD980717565,1983-09-08,2014-03-10
MOD980741912,1983-09-08,2014-03-10
NJD980654164,1983-09-08,2014-03-10
TXD980629851,1983-09-08,2014-03-10
PAD980508766,1983-09-08,2014-03-10
TND980728836,1983-09-08,2014-03-10
NJD980654198,1983-09-08,2014-03-10
IND980614556,1983-09-08,2014-03-10
OHD980610018,1983-09-08,2014-03-10
MAD980731335,1983-09-08,2014-03-10
MN7213820908,1983-09-08,2014-03-10
OHD980794614,1983-09-08,2014-03-10
IND980794432,1983-09-08,2014-03-10
NJD061843249,1983-09-08,2014-03-10
MID020883609,1983-09-08,2014-03-10
MAD990685422,1983-09-08,2014-03-10
MED980731475,1983-09-08,2014-03-10
MND980609515,1983-09-08,2014-03-10
NYD980531727,1983-09-08,2014-03-10
PAD980692420,1983-09-08,2014-03-10
OHD980510200,1983-09-08,2014-03-10
VTD000860239,1983-09-08,2014-03-10
NYD980528657,1983-09-08,2014-03-10
GUD980637649,1983-09-08,2014-03-10
MID990858003,1983-09-08,2014-03-10
PAD980712673,1983-09-08,2014-03-10
MID060174240,1983-09-08,2014-03-10
NHD990717647,1983-09-08,2014-03-10
ILD000802827,1983-09-08,2014-03-10
MID980794747,1983-09-08,2014-03-10
PAD002395887,1983-09-08,2014-03-10
ALD980728703,1983-09-08,2014-03-10
RID055176283,1983-09-08,2014-03-10
MID006013049,1983-09-08,2014-03-10
AZD980695902,1983-09-08,2014-03-10
RID980579056,1983-09-08,2014-03-10
FLD980556351,1983-09-08,2014-03-10
VTD980523062,1983-09-08,2014-03-10
NJD980505648,1983-09-08,2014-03-10
NYD000511659,1983-09-08,2014-03-10
NYD980654206,1983-09-08,2014-03-10
NJD070281175,1983-09-08,2014-03-10
OHD076773712,1983-09-08,2014-03-10
MAD980731483,1983-09-08,2014-03-10
CAD980736151,1983-09-08,2014-03-10
NYD000511493,1983-09-08,2014-03-10
MID095402210,1983-09-08,2014-03-10
MAD980520621,1983-09-08,2014-03-10
FLD000824896,1983-09-08,2014-03-10
NJD980529713,1983-09-08,2014-03-10
MND980609804,1983-09-08,2014-03-10
NJD980654115,1983-09-08,2014-03-10
NJD980654214,1983-09-08,2014-03-10
NJD980654156,1983-09-08,2014-03-10
NJD073732257,1983-09-08,2014-03-10
MID980499842,1983-09-08,2014-03-10
VAD003127578,1983-09-08,2014-03-10
MDD980705164,1983-09-08,2014-03-10
FLD980602882,1983-09-08,2014-03-10
MID000724930,1983-09-08,2014-03-10
NJD070565403,1983-09-08,2014-03-10
SCD000622787,1983-09-08,2014-03-10
SCD980711394,1983-09-08,2014-03-10
CAD029452141,1983-09-08,2014-03-10
IND040313017,1983-09-08,2014-03-10
NJD980505762,1983-09-08,2014-03-10
FLD043861392,1983-09-08,2014-03-10
MID980794473,1983-09-08,2014-03-10
TXD980513956,1983-09-08,2014-03-10
MAD000192393,1983-09-08,2014-03-10
MTD980502777,1983-09-08,2014-03-10
NYD980535215,1983-09-08,2014-03-10
OHD063963714,1983-09-08,2014-03-10
NYD980421176,1983-09-08,2014-03-10
CTD009717604,1983-09-08,2014-03-10
NHD980520225,1983-09-08,2014-03-10
MND980609614,1983-09-08,2014-03-10
NMD980745558,1983-09-08,2014-03-10
MID980608780,1983-09-08,2014-03-10
MID000268136,1983-09-08,2014-03-10
MID079300125,1983-09-08,2014-03-10
MID980499966,1983-09-08,2014-03-10
RID980731442,1983-09-08,2014-03-10
PAD014269971,1983-09-08,2014-03-10
CAT080012826,1983-09-08,2014-03-10
OHD980609994,1983-09-08,2014-03-10
NJD041743220,1983-09-08,2014-03-10
NHD099363541,1983-09-08,2014-03-10
NJD064263817,1983-09-08,2014-03-10
MOD007452154,1983-09-08,2014-03-10
OKD980629844,1983-09-08,2014-03-10
MID980794655,1983-09-08,2014-03-10
FLD980494959,1983-09-08,2014-03-10
ORD050955848,1983-09-08,2014-03-10
NHD062004569,1983-09-08,2014-03-10
FLD004065546,1983-09-08,2014-03-10
ALD983166299,1983-09-08,2014-03-10
AZD980737530,1983-09-08,2014-03-10
DED000606079,1983-09-08,2014-03-10
MID980794556,1983-09-08,2014-03-10
NJD980654172,1983-09-08,2014-03-10
VAD980705404,1983-09-08,2014-03-10
NMD030443303,1983-09-08,2014-03-10
NJD002005106,1983-09-08,2014-03-10
TND980559033,1983-09-08,2014-03-10
ILD000814673,1983-09-08,2014-03-10
MID000722439,1983-09-08,2014-03-10
MID980793806,1983-09-08,2014-03-10
ARD000023440,1983-09-08,2014-03-10
NYD980763767,1983-09-08,2014-03-10
MAD001002252,1983-09-08,2014-03-10
MID980701247,1983-09-08,2014-03-10
ILD047019732,1983-09-08,2014-03-10
IND048989479,1983-09-08,2014-03-10
MAD980732168,1983-09-08,2014-03-10
WVD980713036,1983-09-08,2014-03-10
WAD009487513,1983-09-08,2014-03-10
RID009764929,1983-09-08,2014-03-10
FLD980602767,1983-09-08,2014-03-10
NJD980529945,1983-09-08,2014-03-10
MED980504435,1983-09-08,2014-03-10
CTD009774969,1983-09-08,2014-03-10
NYD000511733,1983-09-08,2014-03-10
OHD980794598,1983-09-08,2014-03-10
FLD049985302,1983-09-08,2014-03-10
NYD013468939,1983-09-08,2013-12-02
NYD000831644,1983-09-08,2013-10-23
PAD980508527,1983-09-08,2013-09-30
MAD079510780,1983-09-08,2013-09-24
ILD980397079,1983-09-08,2012-06-11
NCD001810365,1983-09-08,2012-01-20
PRD980509129,1983-09-08,2011-10-03
NJD980505754,1983-09-08,2011-09-29
MID980794481,1983-09-08,2011-06-13
NJD980654149,1983-09-08,2010-07-12
LAD980745533,1983-09-08,2008-08-12
ARD980496368,1983-09-08,2008-04-07
NJD980654180,1983-09-08,2007-08-27
AZD980496780,1983-09-08,2006-09-25
FLD980602288,1983-09-08,2006-08-21
NYD980507693,1983-09-08,2005-11-29
PRD090370537,1983-09-08,2005-06-17
NYD000511360,1983-09-08,2005-04-28
NYD000606947,1983-09-08,2004-09-30
NYD980506810,1983-09-08,2004-08-05
NYD000514257,1983-09-08,2004-07-30
NJD980530596,1983-09-08,2004-06-02
WVD004336749,1983-09-08,2004-01-16
ARD035662469,1983-09-08,2003-11-06
PAD063766828,1983-09-08,2003-10-21
CAD980638860,1983-09-08,2003-09-30
NJD980529598,1983-09-08,2003-07-11
UTD980635452,1983-09-08,2003-06-30
NMD043158591,1983-09-08,2003-03-17
DED980704951,1983-09-08,2003-03-14
ORD095003687,1983-09-08,2002-09-30
MED980732291,1983-09-08,2002-09-30
PAD980712616,1983-09-08,2001-12-13
MOD980685838,1983-09-08,2001-09-25
MOD980685226,1983-09-08,2001-09-25
OHD017506171,1983-09-08,2001-08-31
FLD062794003,1983-09-08,2001-08-22
PAD980691760,1983-09-08,2001-07-23
MID980608970,1983-09-08,2000-11-17
PRD090282757,1983-09-08,2000-10-16
FLD980727820,1983-09-08,2000-10-02
OHD061722211,1983-09-08,2000-09-05
NJD070415005,1983-09-08,2000-03-20
WYD061112470,1983-09-08,1999-12-06
FLD980728877,1983-09-08,1999-10-01
NYD980652267,1983-09-08,1999-09-30
MED980520241,1983-09-08,1999-09-29
PAD980508667,1983-09-08,1999-09-28
FLD084535442,1983-09-08,1999-09-24
MID980794465,1983-09-08,1999-09-09
NJD046644407,1983-09-08,1998-12-29
PRD980640965,1983-09-08,1998-12-29
OHD980509830,1983-09-08,1998-10-07
MID084566900,1983-09-08,1998-07-14
MID000605717,1983-09-08,1998-06-24
MND097891634,1983-09-08,1998-05-21
NJD980529887,1983-09-08,1998-05-07
NJD980530679,1983-09-08,1998-02-27
TND980558894,1983-09-08,1997-12-31
LAD980501456,1983-09-08,1997-12-30
OHD980509616,1983-09-08,1997-10-29
ARD059636456,1983-09-08,1997-10-14
PAD980712855,1983-09-08,1997-09-18
PAD980508618,1983-09-08,1997-09-18
TXD055143705,1983-09-08,1997-04-08
NJD980532808,1983-09-08,1997-03-03
NJD980532816,1983-09-08,1997-03-03
COD980717953,1983-09-08,1996-12-20
NYD010959757,1983-09-08,1996-10-18
FLD980602643,1983-09-08,1996-10-11
FLD071307680,1983-09-08,1996-10-09
CAT000646208,1983-09-08,1996-09-11
WVD980693402,1983-09-08,1996-08-29
SDD980717136,1983-09-08,1996-08-13
TXD980340889,1983-09-08,1996-08-05
NDD980716963,1983-09-08,1996-07-05
DED058980442,1983-09-08,1996-06-12
MND980609119,1983-09-08,1996-06-05
KYD985066380,1983-09-08,1996-06-03
KYD980500961,1983-09-08,1996-05-17
TND980729172,1983-09-08,1996-04-30
TND980728992,1983-09-08,1996-04-29
KYD980557052,1983-09-08,1996-04-25
KSD980500789,1983-09-08,1996-03-01
TND980729115,1983-09-08,1996-02-21
MID980794440,1983-09-08,1996-01-31
MID002931228,1983-09-08,1996-01-26
FLD980728935,1983-09-08,1995-09-22
NJD980505283,1983-09-08,1995-09-13
FLD041495441,1983-09-08,1995-06-28
MID980794663,1983-09-08,1995-04-19
NJD980529739,1983-09-08,1994-11-02
NYD980652259,1983-09-08,1994-08-30
NJD980505671,1983-09-08,1994-02-03
ALD031618069,1983-09-08,1993-12-30
MID980794390,1983-09-08,1993-12-02
MAD980525232,1983-09-08,1993-11-19
IAD042581256,1983-09-08,1993-10-21
IAD980631063,1983-09-08,1993-10-06
WAD120513957,1983-09-08,1993-09-01
COD980667075,1983-09-08,1993-03-22
FLD056116965,1983-09-08,1993-02-08
IDD000800961,1983-09-08,1992-12-23
PAD980692537,1983-09-08,1992-10-14
NJD980654123,1983-09-08,1992-01-06
KSD980631980,1983-09-08,1992-01-06
CAD980737613,1983-09-08,1991-09-10
IND980794374,1983-09-08,1991-09-10
NJD085632164,1983-09-08,1991-03-21
ARD980496186,1983-09-08,1989-09-22
PAD980692719,1983-09-08,1989-05-31
PAD980539407,1983-09-08,1989-03-23
DED980705255,1983-09-08,1989-03-17
NJD980529838,1983-09-08,1989-02-22
FLD041140344,1983-09-08,1989-02-21
PAD980508865,1983-09-08,1989-02-13
VAD980712970,1983-09-08,1989-01-19
FLD980602346,1983-09-08,1988-09-01
TXD980745582,1983-09-08,1988-04-18
MDD980705099,1983-09-08,1988-04-18
AZD980735724,1983-09-08,1988-04-18
PAD980552913,1983-09-08,1986-03-07
NJD980532832,1983-09-08,1986-03-07
PAD980712731,1983-09-08,1986-03-07
NCD980602163,1983-09-08,1986-03-07
MPD980798318,1983-09-08,1986-03-07
FMD980637987,1983-09-08,1986-03-07
ASD980637656,1983-09-08,1986-03-07
